%TF.GenerationSoftware,KiCad,Pcbnew,(6.0.2-0)*%
%TF.CreationDate,2022-02-20T18:33:21-03:00*%
%TF.ProjectId,Consigna,436f6e73-6967-46e6-912e-6b696361645f,rev?*%
%TF.SameCoordinates,Original*%
%TF.FileFunction,Paste,Top*%
%TF.FilePolarity,Positive*%
%FSLAX46Y46*%
G04 Gerber Fmt 4.6, Leading zero omitted, Abs format (unit mm)*
G04 Created by KiCad (PCBNEW (6.0.2-0)) date 2022-02-20 18:33:21*
%MOMM*%
%LPD*%
G01*
G04 APERTURE LIST*
%ADD10R,2.500000X2.000000*%
%ADD11R,2.500000X0.500000*%
%ADD12R,2.500000X1.500000*%
%ADD13R,2.000000X1.700000*%
%ADD14R,2.500000X1.700000*%
G04 APERTURE END LIST*
D10*
%TO.C,J2*%
X94340000Y-36150000D03*
X88840000Y-36150000D03*
X88840000Y-27350000D03*
X94340000Y-27350000D03*
D11*
X88840000Y-30150000D03*
X88840000Y-30950000D03*
X88840000Y-31750000D03*
X88840000Y-32550000D03*
X88840000Y-33350000D03*
%TD*%
D12*
%TO.C,SW4*%
X33330000Y-43720000D03*
X40330000Y-43720000D03*
X33330000Y-47720000D03*
X40330000Y-47720000D03*
%TD*%
%TO.C,SW3*%
X33330000Y-55880000D03*
X40330000Y-55880000D03*
X33330000Y-59880000D03*
X40330000Y-59880000D03*
%TD*%
%TO.C,SW2*%
X33330000Y-31020000D03*
X40330000Y-31020000D03*
X33330000Y-35020000D03*
X40330000Y-35020000D03*
%TD*%
%TO.C,SW1*%
X33330000Y-19590000D03*
X40330000Y-19590000D03*
X33330000Y-23590000D03*
X40330000Y-23590000D03*
%TD*%
D13*
%TO.C,R2*%
X71470000Y-30480000D03*
X75470000Y-30480000D03*
%TD*%
%TO.C,R1*%
X75660000Y-49530000D03*
X71660000Y-49530000D03*
%TD*%
D14*
%TO.C,J1*%
X90170000Y-52070000D03*
X90170000Y-49530000D03*
%TD*%
D13*
%TO.C,D2*%
X61500000Y-30480000D03*
X65500000Y-30480000D03*
%TD*%
%TO.C,D1*%
X63500000Y-49530000D03*
X59500000Y-49530000D03*
%TD*%
M02*
