<?xml version="1.0" encoding="utf-8"?>
<!-- Generator: Adobe Illustrator 23.1.1, SVG Export Plug-In . SVG Version: 6.00 Build 0)  -->
<svg version="1.1" id="Capa_1" xmlns="http://www.w3.org/2000/svg" xmlns:xlink="http://www.w3.org/1999/xlink" x="0px" y="0px"
	 viewBox="0 0 523.5 523.5" style="enable-background:new 0 0 523.5 523.5;" xml:space="preserve">
<style type="text/css">
	.st0{fill:#97AE3C;}
	.st1{fill:none;stroke:#C0C839;stroke-miterlimit:10;}
	.st2{fill:none;stroke:#FFFFFF;stroke-width:12;stroke-miterlimit:10;}
	.st3{fill:none;stroke:#FFFFFF;stroke-width:8;stroke-miterlimit:10;}
	.st4{fill:#FFFFFF;}
</style>
<g>
	<g>
		<path class="st0" d="M523,261.7C523,406,406,523,261.7,523S0.5,406,0.5,261.7S117.5,0.5,261.7,0.5S523,117.5,523,261.7"/>
		<circle class="st1" cx="261.7" cy="261.7" r="261.2"/>
		<path class="st0" d="M130.6,96.1c-9.2,1.2-10.4,3.3-23.7,6.4c-22.9,5.2-38.4,2.7-38.9,5.4c-0.6,3,19.5,3.5,35.9,16.7
			c1.9,1.6,16.1,13.4,18.7,31.3c1.6,11.5-2.9,16-6.1,31.3c-3,15-3,30.5,0,45.5c5.5,26.5,20.5,44.9,28,53.9
			c6.8,8.1,13.3,15.9,24.9,23.8c26.1,17.5,55,19.9,65.5,20.7c19,1.4,19.7-2.1,38.5-0.6c19.1,1.7,37.7,6.7,55,14.9
			c33.9,16.4,32.5,33.2,69.9,54.2c0,0,14.9,8.3,41.6,14.3c12.2,2.7,14.6,2,15.4,1c2.4-3.3-10.9-13.5-24-23.9
			c-69.1-54.7-69.6-61.2-68.3-63.1c2.1-2.9,11.3,2,14.5-1.1c8.1-8-34.2-60.1-93.1-103.3c-47.9-35.1-60.9-30.8-76.9-55.6
			c-17.6-27.3-15.1-53.1-41-65.1c-4.2-1.9-18.8-8.7-36-6.4"/>
		<path class="st2" d="M130.6,96.1c-9.2,1.2-10.4,3.3-23.7,6.4c-22.9,5.2-38.4,2.7-38.9,5.4c-0.6,3,19.5,3.5,35.9,16.7
			c1.9,1.6,16.1,13.4,18.7,31.3c1.6,11.5-2.9,16-6.1,31.3c-3,15-3,30.5,0,45.5c5.5,26.5,20.5,44.9,28,53.9
			c6.8,8.1,13.3,15.9,24.9,23.8c26.1,17.5,55,19.9,65.5,20.7c19,1.4,19.7-2.1,38.5-0.6c19.1,1.7,37.7,6.7,55,14.9
			c33.9,16.4,32.5,33.2,69.9,54.2c0,0,14.9,8.3,41.6,14.3c12.2,2.7,14.6,2,15.4,1c2.4-3.3-10.9-13.5-24-23.9
			c-69.1-54.7-69.6-61.2-68.3-63.1c2.1-2.9,11.3,2,14.5-1.1c8.1-8-34.2-60.1-93.1-103.3c-47.9-35.1-60.9-30.8-76.9-55.6
			c-17.6-27.3-15.1-53.1-41-65.1C162.4,100.5,147.8,93.8,130.6,96.1z"/>
		<path class="st3" d="M328.5,299.2c-18.3-0.4-50.4-2.5-84-13c-11.6-3.6-34.9-11.2-54.7-26.6s-25.5-30.6-27.6-38.7"/>
		<path class="st4" d="M150,127.1c7.2,0,7.2-11.2,0-11.2S142.7,127.1,150,127.1"/>
	</g>
</g>
</svg>
